%!PS-Adobe-3.0 EPSF-3.0
%%Creator: cairo 1.10.2 (http://cairographics.org)
%%CreationDate: Fri Jul  4 09:04:16 2014
%%Pages: 1
%%BoundingBox: 0 -1 20 20
%%DocumentData: Clean7Bit
%%LanguageLevel: 2
%%EndComments
%%BeginProlog
/cairo_eps_state save def
/dict_count countdictstack def
/op_count count 1 sub def
userdict begin
/q { gsave } bind def
/Q { grestore } bind def
/cm { 6 array astore concat } bind def
/w { setlinewidth } bind def
/J { setlinecap } bind def
/j { setlinejoin } bind def
/M { setmiterlimit } bind def
/d { setdash } bind def
/m { moveto } bind def
/l { lineto } bind def
/c { curveto } bind def
/h { closepath } bind def
/re { exch dup neg 3 1 roll 5 3 roll moveto 0 rlineto
      0 exch rlineto 0 rlineto closepath } bind def
/S { stroke } bind def
/f { fill } bind def
/f* { eofill } bind def
/n { newpath } bind def
/W { clip } bind def
/W* { eoclip } bind def
/BT { } bind def
/ET { } bind def
/pdfmark where { pop globaldict /?pdfmark /exec load put }
    { globaldict begin /?pdfmark /pop load def /pdfmark
    /cleartomark load def end } ifelse
/BDC { mark 3 1 roll /BDC pdfmark } bind def
/EMC { mark /EMC pdfmark } bind def
/cairo_store_point { /cairo_point_y exch def /cairo_point_x exch def } def
/Tj { show currentpoint cairo_store_point } bind def
/TJ {
  {
    dup
    type /stringtype eq
    { show } { -0.001 mul 0 cairo_font_matrix dtransform rmoveto } ifelse
  } forall
  currentpoint cairo_store_point
} bind def
/cairo_selectfont { cairo_font_matrix aload pop pop pop 0 0 6 array astore
    cairo_font exch selectfont cairo_point_x cairo_point_y moveto } bind def
/Tf { pop /cairo_font exch def /cairo_font_matrix where
      { pop cairo_selectfont } if } bind def
/Td { matrix translate cairo_font_matrix matrix concatmatrix dup
      /cairo_font_matrix exch def dup 4 get exch 5 get cairo_store_point
      /cairo_font where { pop cairo_selectfont } if } bind def
/Tm { 2 copy 8 2 roll 6 array astore /cairo_font_matrix exch def
      cairo_store_point /cairo_font where { pop cairo_selectfont } if } bind def
/g { setgray } bind def
/rg { setrgbcolor } bind def
/d1 { setcachedevice } bind def
%%EndProlog
%%Page: 1 1
%%BeginPageSetup
%%PageBoundingBox: 0 -1 20 20
%%EndPageSetup
q 0 -1 20 21 rectclip q
0 19.2 20 -20 re W n
0 g
0.961 14.321 m 1.602 16.079 4.398 17.278 5.68 16.641 c 2 12.161 l 2 
12.161 0.398 12.88 0.961 14.321 c h
9.559 9.052 m 9.488 9.266 9.324 9.427 9.121 9.516 c 9.121 9.52 l 9.109 
9.524 l 9.09 9.532 9.074 9.552 9.055 9.559 c 8.945 9.595 l 6.32 10.72 l 
8.863 13.802 l 14.145 12.04 l 14.23 12.013 14.316 12.001 14.398 12.001 
c 14.734 12.001 15.047 12.212 15.16 12.548 c 15.297 12.966 15.07 13.419 
14.652 13.559 c 9.605 15.243 l 10.516 15.43 11.199 16.235 11.199 17.2 c 
11.199 18.305 10.305 19.2 9.199 19.2 c 8.094 19.2 7.199 18.305 7.199 
17.2 c 7.199 16.688 7.398 16.227 7.715 15.872 c 7.453 15.958 l 7.434 
15.966 7.418 15.962 7.398 15.966 c 7.348 15.985 7.309 16.001 7.281 
16.001 c 7.242 16.001 7.207 15.997 7.172 15.993 c 7.152 15.993 7.129 
15.993 7.105 15.989 c 6.766 15.966 6.434 15.872 6.16 15.598 c 5.762 
15.122 5.441 14.802 4.961 14.239 c 4.078 13.2 3.602 12.559 3.199 12.079 
c 3.039 11.841 2.48 10.962 2.879 10.239 c 3.281 9.598 3.922 9.278 4.801 
9.04 c 5.426 8.833 7.129 8.286 8.246 7.93 c 9.641 3.747 l 9.754 3.411 
10.066 3.2 10.398 3.2 c 10.484 3.2 10.57 3.216 10.652 3.243 c 11.07 
3.38 11.297 3.833 11.16 4.255 c h
19.199 6.802 m 19.199 4.802 17.602 3.2 15.602 3.2 c 13.602 3.2 12 4.802 
12 6.802 c 12 8.802 13.602 10.399 15.602 10.399 c 17.602 10.399 19.199 
8.802 19.199 6.802 c h
18 6.802 m 18 8.161 16.961 9.2 15.602 9.2 c 14.238 9.2 13.199 8.161 
13.199 6.802 c 13.199 5.438 14.238 4.399 15.602 4.399 c 16.961 4.399 18 
5.438 18 6.802 c h
7.199 3.598 m 7.199 1.598 5.602 0.001 3.602 0.001 c 1.602 0.001 0 1.598 
0 3.598 c 0 5.598 1.602 7.2 3.602 7.2 c 5.602 7.2 7.199 5.598 7.199 
3.598 c h
6 3.598 m 6 4.962 4.961 6.001 3.602 6.001 c 2.238 6.001 1.199 4.962 
1.199 3.598 c 1.199 2.239 2.238 1.2 3.602 1.2 c 4.961 1.2 6 2.239 6 
3.598 c h
6 3.598 m f
Q Q
showpage
%%Trailer
count op_count sub {pop} repeat
countdictstack dict_count sub {end} repeat
cairo_eps_state restore
%%EOF
