%!PS-Adobe-3.0 EPSF-3.0
%%Creator: cairo 1.10.2 (http://cairographics.org)
%%CreationDate: Fri Jul  4 08:29:28 2014
%%Pages: 1
%%BoundingBox: 0 0 9 12
%%DocumentData: Clean7Bit
%%LanguageLevel: 2
%%EndComments
%%BeginProlog
/cairo_eps_state save def
/dict_count countdictstack def
/op_count count 1 sub def
userdict begin
/q { gsave } bind def
/Q { grestore } bind def
/cm { 6 array astore concat } bind def
/w { setlinewidth } bind def
/J { setlinecap } bind def
/j { setlinejoin } bind def
/M { setmiterlimit } bind def
/d { setdash } bind def
/m { moveto } bind def
/l { lineto } bind def
/c { curveto } bind def
/h { closepath } bind def
/re { exch dup neg 3 1 roll 5 3 roll moveto 0 rlineto
      0 exch rlineto 0 rlineto closepath } bind def
/S { stroke } bind def
/f { fill } bind def
/f* { eofill } bind def
/n { newpath } bind def
/W { clip } bind def
/W* { eoclip } bind def
/BT { } bind def
/ET { } bind def
/pdfmark where { pop globaldict /?pdfmark /exec load put }
    { globaldict begin /?pdfmark /pop load def /pdfmark
    /cleartomark load def end } ifelse
/BDC { mark 3 1 roll /BDC pdfmark } bind def
/EMC { mark /EMC pdfmark } bind def
/cairo_store_point { /cairo_point_y exch def /cairo_point_x exch def } def
/Tj { show currentpoint cairo_store_point } bind def
/TJ {
  {
    dup
    type /stringtype eq
    { show } { -0.001 mul 0 cairo_font_matrix dtransform rmoveto } ifelse
  } forall
  currentpoint cairo_store_point
} bind def
/cairo_selectfont { cairo_font_matrix aload pop pop pop 0 0 6 array astore
    cairo_font exch selectfont cairo_point_x cairo_point_y moveto } bind def
/Tf { pop /cairo_font exch def /cairo_font_matrix where
      { pop cairo_selectfont } if } bind def
/Td { matrix translate cairo_font_matrix matrix concatmatrix dup
      /cairo_font_matrix exch def dup 4 get exch 5 get cairo_store_point
      /cairo_font where { pop cairo_selectfont } if } bind def
/Tm { 2 copy 8 2 roll 6 array astore /cairo_font_matrix exch def
      cairo_store_point /cairo_font where { pop cairo_selectfont } if } bind def
/g { setgray } bind def
/rg { setrgbcolor } bind def
/d1 { setcachedevice } bind def
%%EndProlog
%%Page: 1 1
%%BeginPageSetup
%%PageBoundingBox: 0 0 9 12
%%EndPageSetup
q 0 0 9 12 rectclip q
0.00392157 0 0.00784314 rg
7.844 0 m 8.98 0 l 6.965 2.996 l 7.352 3.055 7.672 3.234 7.926 3.527 c 
8.18 3.82 8.309 4.172 8.309 4.574 c 8.309 10.422 l 8.309 10.855 8.156 
11.227 7.844 11.535 c 7.535 11.848 7.156 12 6.707 12 c 2.273 12 l 1.824 
12 1.445 11.848 1.137 11.535 c 0.828 11.227 0.672 10.855 0.672 10.422 c 
0.672 4.574 l 0.672 4.172 0.805 3.82 1.066 3.516 c 1.328 3.215 1.648 
3.043 2.02 2.996 c 0 0 l 1.137 0 l 1.328 0.289 l 7.652 0.289 l h
7.172 3.969 m 7.031 3.832 6.852 3.762 6.637 3.762 c 6.438 3.762 6.266 
3.832 6.125 3.969 c 5.988 4.109 5.918 4.285 5.918 4.504 c 5.918 4.703 
5.988 4.879 6.125 5.023 c 6.266 5.172 6.438 5.246 6.637 5.246 c 6.855 
5.246 7.031 5.172 7.172 5.023 c 7.309 4.879 7.379 4.703 7.379 4.504 c 
7.379 4.285 7.309 4.109 7.172 3.969 c h
1.648 10.273 m 1.648 10.492 1.719 10.668 1.855 10.809 c 1.996 10.949 
2.172 11.02 2.391 11.02 c 6.59 11.02 l 6.809 11.02 6.988 10.949 7.137 
10.809 c 7.285 10.668 7.359 10.492 7.359 10.273 c 7.359 8.402 l 7.359 
8.188 7.285 8.008 7.137 7.867 c 6.988 7.73 6.809 7.66 6.59 7.66 c 2.391 
7.66 l 2.172 7.66 1.992 7.73 1.855 7.867 c 1.719 8.008 1.648 8.188 
1.648 8.402 c h
1.809 3.969 m 1.668 4.109 1.602 4.285 1.602 4.504 c 1.602 4.703 1.668 
4.879 1.809 5.023 c 1.949 5.172 2.125 5.246 2.344 5.246 c 2.543 5.246 
2.715 5.172 2.855 5.027 c 2.992 4.879 3.062 4.703 3.062 4.504 c 3.062 
4.285 2.992 4.109 2.855 3.969 c 2.715 3.832 2.543 3.762 2.344 3.762 c 
2.125 3.762 1.949 3.832 1.809 3.969 c h
1.98 1.254 m 2.508 2.043 l 6.477 2.043 l 7.004 1.254 l h
1.98 1.254 m f
Q Q
showpage
%%Trailer
count op_count sub {pop} repeat
countdictstack dict_count sub {end} repeat
cairo_eps_state restore
%%EOF
