<?xml version="1.0" standalone="no"?>
<!DOCTYPE svg PUBLIC "-//W3C//DTD SVG 1.1//EN" "http://www.w3.org/Graphics/SVG/1.1/DTD/svg11.dtd">
<svg xmlns="http://www.w3.org/2000/svg"><defs><font id="flaticon" horiz-adv-x="512"><font-face units-per-em="512" ascent="448" descent="-64" x-height="240" cap-height="480"/><missing-glyph horiz-adv-x="512"/><glyph unicode="&#xE000;" glyph-name="car95" horiz-adv-x="640" d="M638.78114829845 213.34276186267l-7.2891103164718 21.318761969813c-4.0319820000804 11.801090173705 -16.868496122785 21.325619082058 -28.649014959755 21.325619082058h-26.468453265834c-19.865054173865 55.741465439886 -44.159802858023 123.02345078817 -51.222628470409 138.7879518395 c-10.9782367043 24.507319163754 -46.086651398878 35.581555439485 -65.37570814416 40.957531439592c0 0 -32.248998888398 12.260516694122 -139.77537600279 12.260516694122S180.22548113624 435.73948330588 180.22548113624 435.73948330588 c-22.594184847389 -7.5565376940282 -54.013473154138 -18.239918571792 -66.500274552346 -42.040955174307c-5.8559738572596 -11.211378520632 -30.527863714894 -80.399641073031 -50.612345480601 -137.70452810479H37.186119704823c-11.773661724724 0 -24.603318735184 -9.5451002450882 -28.64215784751 -21.332476194303l-7.323395877697 -21.318761969813 c-4.0319820000804 -11.801090173705 2.2422757041263 -21.332476194303 14.022794541096 -21.332476194303h25.590742898469C37.528975317074 182.42404274981 35.519841429279 176.60921156602 35.519841429279 176.60921156602c-2.0434194490203 -3.4696987959875 -3.5176985817028 -19.433056102428 -3.5176985817028 -23.718751255575v-120.88403176772 v-8.4273909491475v-64.998566970683c0 -12.466230061473 10.121097673671 -22.594184847389 22.587327735144 -22.594184847389h82.820201695528c12.479944285963 0 22.587327735144 10.127954785916 22.587327735144 22.594184847389v41.410100847764H479.99785715242v-41.410100847764 c0 -12.466230061473 10.114240561426 -22.594184847389 22.587327735144 -22.594184847389h82.813344583283c12.479944285963 0 22.594184847389 10.127954785916 22.594184847389 22.594184847389v64.998566970683v8.4273909491475V152.90417453494c0 4.2856951531466 -1.4742791326824 20.249052459587 -3.5245556939478 23.705037031085 c0 0 -2.0502765612654 5.8148311837894 -5.4239757858224 15.407931214593h25.71417091888C636.53887259432 192.01714278061 642.81313029853 201.55538591346 638.78114829845 213.34276186267zM159.52385926849 94.310150401114h-34.230704327213 c-30.665005959795 0 -61.288869246119 4.1279815715108 -61.288869246119 23.581609010674v23.574751898429c0 22.751898429025 13.220512408427 23.581609010674 27.455877429119 23.581609010674c13.91993785742 0 41.478671970214 -11.773661724724 59.615733858331 -19.89933973509 c19.77591171468 -8.8388176838496 41.910670041652 -16.230784683997 41.910670041652 -30.953004674086C192.9934241365 100.57755099308 185.34088687104 94.310150401114 159.52385926849 94.310150401114zM111.81892937978 247.39518127151 c16.83421056156 69.956259123843 35.156414480292 109.446368543 39.202110704863 120.47946214526c3.2296998674113 8.0022499899554 6.3702572756372 32.72899674555 168.99353127888 32.72899674555S486.46411399949 372.39348038625 486.85496939746 372.04376766175 c5.0194061633653 -14.982790255401 24.898174561721 -60.136874388954 40.799817857956 -124.60744371677c0 0 -68.673979134022 -23.396466980058 -207.68135856536 -23.396466980058S111.81892937978 247.39518127151 111.81892937978 247.39518127151zM446.98771880483 114.21634724845 c0 14.756505551315 22.141615439217 22.114186990237 41.910670041652 30.953004674086c18.143919000362 8.0913924491409 45.695796000911 19.89933973509 59.608876746086 19.89933973509c14.242222132937 0 27.455877429119 -0.82971058164919 27.455877429119 -23.581609010674v-23.581609010674h0.041142673470208 c0 -19.487913000388 -30.63072039857 -23.581609010674 -61.288869246119 -23.581609010674h-34.271847000683C454.66082740702 94.310150401114 446.98771880483 100.57755099308 446.98771880483 114.21634724845z"/><glyph unicode="&#xE001;" glyph-name="mountain24" horiz-adv-x="512" d="M25.6 317.86666666667C42.666666666667 364.8 117.33333333333 396.8 151.46666666667 379.73333333333L53.333333333333 260.26666666667C53.333333333333 260.26666666667 10.666666666667 279.46666666667 25.6 317.86666666667zM254.912 177.408c-1.8986666666667 5.696 -6.2933333333333 9.9413333333333 -11.690666666667 12.394666666667 V189.86666666667l-0.32 0.128c-0.53333333333333 0.23466666666667 -0.896 0.72533333333333 -1.472 0.896l-2.9226666666667 0.96L168.53333333333 221.86666666667l67.818666666667 82.197333333333l140.88533333333 -46.976 C379.49866666667 256.34133333333 381.78133333333 256 384 256c8.9386666666667 0 17.258666666667 5.6533333333333 20.224 14.592c3.7333333333333 11.178666666667 -2.304 23.253333333333 -13.482666666667 26.986666666667l-134.61333333333 44.864 C280.42666666667 347.43466666667 298.66666666667 368.91733333333 298.66666666667 394.66666666667C298.66666666667 424.128 274.79466666667 448 245.33333333333 448S192 424.128 192 394.66666666667c0 -13.653333333333 5.2906666666667 -25.984 13.738666666667 -35.413333333333L198.74133333333 361.57866666667 C198.272 361.728 197.80266666667 361.62133333333 197.33333333333 361.74933333333C195.98933333333 362.304 194.85866666667 362.66666666667 194.13333333333 362.66666666667C193.17333333333 362.66666666667 192.23466666667 362.53866666667 191.27466666667 362.496 C190.67733333333 362.47466666667 190.10133333333 362.47466666667 189.52533333333 362.38933333333C180.43733333333 361.792 171.56266666667 359.296 164.26666666667 352c-10.666666666667 -12.8 -19.2 -21.333333333333 -32 -36.266666666667C108.8 288 96 270.93333333333 85.333333333333 258.13333333333 c-4.2666666666667 -6.4 -19.2 -29.866666666667 -8.5333333333333 -49.066666666667C87.466666666667 192 104.53333333333 183.46666666667 128 177.06666666667c16.661333333333 -5.5466666666667 62.122666666667 -20.096 91.925333333333 -29.610666666667l37.184 -111.552C260.07466666667 27.008 268.39466666667 21.333333333333 277.33333333333 21.333333333333 c2.2186666666667 0 4.5013333333333 0.384 6.7413333333333 1.1093333333333c11.136 3.7333333333333 17.216 15.786666666667 13.482666666667 26.986666666667L254.912 177.408zM512 117.33333333333c0 -53.333333333333 -42.666666666667 -96 -96 -96S320 64 320 117.33333333333 s42.666666666667 96 96 96S512 170.66666666667 512 117.33333333333zM480 117.33333333333c0 36.266666666667 -27.733333333333 64 -64 64s-64 -27.733333333333 -64 -64s27.733333333333 -64 64 -64S480 81.066666666667 480 117.33333333333zM192 32C192 -21.333333333333 149.33333333333 -64 96 -64 S0 -21.333333333333 0 32S42.666666666667 128 96 128S192 85.333333333333 192 32zM160 32c0 36.266666666667 -27.733333333333 64 -64 64s-64 -27.733333333333 -64 -64s27.733333333333 -64 64 -64S160 -4.2666666666667 160 32z"/><glyph unicode="&#xE002;" glyph-name="passenger2" horiz-adv-x="383" d="M334.7456 -64h48.469333333333l-86.1184 127.76106666667c16.520533333333 2.5941333333333 30.208 10.24 41.0624 22.766933333333c10.922666666667 12.526933333333 16.384 27.409066666667 16.384 44.578133333333 V380.68906666667c0 18.466133333333 -6.5877333333333 34.304 -19.797333333333 47.547733333333C321.46773333333 441.4464 305.2544 448 286.208 448H97.006933333333C77.789866666667 448 61.678933333333 441.4464 48.469333333333 428.2368 C35.259733333333 414.99306666667 28.672 399.1552 28.672 380.68906666667v-249.58293333333c0 -17.169066666667 5.5978666666667 -32.187733333333 16.861866666667 -45.056c11.195733333333 -12.868266666667 24.746666666667 -20.2752 40.584533333333 -22.254933333333L0 -64h48.469333333333 l8.2602666666667 12.288h269.7216L334.7456 -64zM305.93706666667 105.3696C300.06613333333 99.4304 292.38613333333 96.426666666667 283.20426666667 96.426666666667c-8.6016 0 -15.872 3.0037333333333 -21.8112 8.9429333333333 C255.45386666667 111.34293333333 252.45013333333 118.85226666667 252.45013333333 128.13653333333c0 8.5674666666667 3.0037333333333 15.9744 8.9429333333333 22.254933333333c5.9392 6.2805333333333 13.2096 9.4208 21.8112 9.4208 c9.216 0 16.861866666667 -3.1744 22.7328 -9.4208C311.87626666667 144.11093333333 314.88 136.704 314.88 128.13653333333C314.88 118.85226666667 311.87626666667 111.34293333333 305.93706666667 105.3696zM70.280533333333 374.40853333333 c0 9.2501333333333 3.0037333333333 16.827733333333 8.9429333333333 22.801066666667c5.8709333333333 5.9392 13.482666666667 8.9088 22.7328 8.9088h179.26826666667c9.2501333333333 0 16.9984 -2.9696 23.278933333333 -8.9088 c6.3488 -5.9733333333333 9.4549333333333 -13.550933333333 9.4549333333333 -22.801066666667v-79.872c0 -9.2501333333333 -3.1402666666667 -16.861866666667 -9.4549333333333 -22.801066666667c-6.2805333333333 -5.9392 -13.994666666667 -8.8746666666667 -23.278933333333 -8.8746666666667H101.92213333333 c-9.2501333333333 0 -16.861866666667 2.9354666666667 -22.7328 8.8746666666667C73.250133333333 277.67466666667 70.280533333333 285.25226666667 70.280533333333 294.53653333333V374.40853333333zM77.2096 105.3696C71.202133333333 111.34293333333 68.266666666667 118.85226666667 68.266666666667 128.13653333333 C68.266666666667 136.704 71.202133333333 144.11093333333 77.2096 150.39146666667C83.217066666667 156.672 90.7264 159.8464 100.01066666667 159.8464c8.5333333333333 0 15.803733333333 -3.1744 21.8112 -9.4208 C127.72693333333 144.11093333333 130.73066666667 136.704 130.73066666667 128.13653333333c0 -9.2501333333333 -3.0037333333333 -16.7936 -8.9429333333333 -22.766933333333C115.8144 99.4304 108.544 96.426666666667 100.01066666667 96.426666666667 C90.7264 96.426666666667 83.217066666667 99.4304 77.2096 105.3696zM84.48 -10.4448l22.459733333333 33.553066666667h169.33546666667l22.528 -33.553066666667H84.48z"/><glyph unicode="&#xE003;" glyph-name="trekking" horiz-adv-x="363" d="M149.93066666667 394.66666666667c0 29.461333333333 23.872 53.333333333333 53.333333333333 53.333333333333s53.333333333333 -23.872 53.333333333333 -53.333333333333S232.72533333333 341.33333333333 203.264 341.33333333333S149.93066666667 365.20533333333 149.93066666667 394.66666666667zM81.664 213.33333333333 c6.4213333333333 19.2 38.421333333333 128 38.421333333333 128c-19.2 0 -46.933333333333 2.1333333333333 -72.533333333333 -19.2s-42.666666666667 -57.6 -46.933333333333 -85.333333333333c-4.2666666666667 -25.6 14.933333333333 -34.133333333333 36.266666666667 -40.533333333333C58.197333333333 189.86666666667 77.418666666667 198.4 81.664 213.33333333333zM361.04533333333 286.86933333333c-3.7333333333333 7.4666666666667 -11.285333333333 11.562666666667 -19.114666666667 11.584V320h-21.333333333333v-29.482666666667l-59.541333333333 -29.781333333333l-53.12 54.890666666667C207.82933333333 315.73333333333 207.68 315.776 207.552 315.88266666667 C204.50133333333 319.65866666667 198.86933333333 322.90133333333 194.752 324.26666666667l-53.333333333333 12.8l-40.533333333333 -138.66666666667c-4.2666666666667 -25.6 -4.2666666666667 -44.8 21.333333333333 -66.133333333333l70.4 -57.984V-42.666666666667c0 -11.797333333333 9.536 -21.333333333333 21.333333333333 -21.333333333333 c11.818666666667 0 21.333333333333 9.536 21.333333333333 21.333333333333v128c0 5.6746666666667 -2.2186666666667 11.093333333333 -6.2506666666667 15.082666666667l-3.3493333333333 3.3493333333333L175.53066666667 168.53333333333l23.104 95.338666666667l42.624 -44.032 c4.1386666666667 -4.2666666666667 9.6853333333333 -6.5066666666667 15.338666666667 -6.5066666666667c3.2426666666667 0 6.528 0.74666666666667 9.536 2.24l54.464 27.242666666667V-64h21.333333333333V253.48266666667l9.536 4.7786666666667 C362.00533333333 263.53066666667 366.31466666667 276.33066666667 361.04533333333 286.86933333333zM96.597333333333 136.53333333333l-10.666666666667 -68.266666666667c0 -0.042666666666667 0 -0.10666666666667 0 -0.192l-41.152 -102.82666666667 c-4.3733333333333 -10.965333333333 0.93866666666667 -23.381333333333 11.882666666667 -27.754666666667C59.264 -63.552 61.952 -64 64.597333333333 -64c8.4693333333333 0 16.469333333333 5.0346666666667 19.84 13.418666666667l41.088 102.74133333333 c1.3866666666667 2.2186666666667 2.5173333333333 4.6933333333333 3.0933333333333 7.552l8.5333333333333 29.866666666667C109.41866666667 113.06666666667 96.597333333333 121.6 96.597333333333 136.53333333333z"/></font></defs></svg>
